{
	"info": {
		"_postman_id": "f9dc09d1-7518-47dd-84fe-a63032d15ab2",
		"name": "GoNitecDemo",
		"schema": "https://schema.getpostman.com/json/collection/v2.1.0/collection.json"
	},
	"item": [
		{
			"name": "Post",
			"protocolProfileBehavior": {
				"disabledSystemHeaders": {}
			},
			"request": {
				"method": "POST",
				"header": [
					{
						"key": "Content-Type",
						"value": "application/x-www-form-urlencoded",
						"type": "text",
						"disabled": true
					}
				],
				"body": {
					"mode": "raw",
					"raw": "{\r\n    \"name\": \"книга-42\",\r\n    \"description\": \"содержание-332\",\r\n    \"price\": 211,\r\n    \"quantity\": 12\r\n}",
					"options": {
						"raw": {
							"language": "json"
						}
					}
				},
				"url": {
					"raw": "localhost:8080/books",
					"host": [
						"localhost"
					],
					"port": "8080",
					"path": [
						"books"
					],
					"query": [
						{
							"key": "",
							"value": null,
							"disabled": true
						}
					]
				}
			},
			"response": []
		},
		{
			"name": "localhost:8080/books/21",
			"request": {
				"method": "PUT",
				"header": [],
				"body": {
					"mode": "raw",
					"raw": "{\r\n    \"name\": \"Приключения Тома Сойера\",\r\n    \"description\": \"Рассказ Марка Твена о приключениях мальчика\",\r\n    \"price\": 230,\r\n    \"quantity\": 12\r\n}",
					"options": {
						"raw": {
							"language": "json"
						}
					}
				},
				"url": {
					"raw": "localhost:8080/books/21",
					"host": [
						"localhost"
					],
					"port": "8080",
					"path": [
						"books",
						"21"
					]
				}
			},
			"response": []
		}
	]
}